<svg xmlns="http://www.w3.org/2000/svg" width="70" height="70" viewBox="0 0 70 70">
    <g fill="none" fill-rule="evenodd" stroke="#B32727" stroke-width="5.5" transform="translate(3 3)">
        <circle cx="32" cy="32" r="32"/>
        <g stroke-linecap="round">
            <path d="M18.424 19l27.152 27M45.576 19L18.424 46"/>
        </g>
    </g>
</svg>
