id,name,model_id:id,group_id:id,perm_read,perm_write,perm_create,perm_unlink
bi_website_support_ticket_domain_restrict,bi_website_support_ticket_domain_restrict,model_domain_restrict,,1,1,1,1
bi_website_support_ticket_domain_line,bi_website_support_ticket_domain_line,model_domain_line,,1,1,1,1
bi_website_support_ticket_domain_list,bi_website_support_ticket_domain_list,model_domain_list,,1,1,1,1