Current Country,Correct Country
Arab Emirates,United Arab Emirates
Argentinian,Argentina
Brunei Darussalam,Brunei
California,United States
Canda,Canada
chian,China
China China,China
china/shanghai,China
CHINA??,China
China-China,China
Chine,China
Christmas Island,Australia
Colarado,United States
DABOLIM,India
Delhi,India
England,United Kingdom
Great Britain,United Kingdom
India,India
Iran Islamic Republic of,Iran
"Korea, South",South Korea
Luxemburg,Luxembourg
Moldova Republic of,Moldova
Mylapore,India
Netherland,Netherlands
New Zeland,New Zealand
P.R. China,China
Russia,Russia
Russian federation,Russia
Slovak,Slovakia
Syrian Arab Republic,Syria
Taiwan Province of China,Taiwan
Tanzania United Republic of,Tanzania
Viet Nam,Vietnam
ZHONG GUO,China
zhongguo,China
