id,name,model_id:id,group_id:id,perm_read,perm_write,perm_create,perm_unlink
access_living_spaces_type,living_spaces_type,model_living_spaces_type,group_livingspaces_admin,1,1,1,1
access_livingspaces_package_parameters,livingspaces_package_parameters,model_livingspaces_package_parameters,group_livingspaces_admin,1,1,1,1
access_livingspaces_notificationevent,livingspaces_notificationevent,model_livingspaces_notificationevent,group_livingspaces_admin,1,1,1,1
access_livingspaces_notificationtemplate,livingspaces_notificationtemplate,model_livingspaces_notificationtemplate,group_livingspaces_admin,1,1,1,1
access_livingspaces_program_schedule,livingspaces_program_schedule,model_livingspaces_program_schedule,group_livingspaces_admin,1,1,1,1
access_livingspaces_registration,livingspaces_registration,model_livingspaces_registration,group_livingspaces_admin,1,1,1,1
access_living_spaces_spokenlanguage,living_spaces_spokenlanguage,model_living_spaces_spokenlanguage,group_livingspaces_admin,1,1,1,1
access_livingspaces_inquiry,livingspaces_inquiry,model_livingspaces_inquiry,group_livingspaces_admin,1,1,1,1
access_livingspaces_program_schedule_roomdata,livingspaces_program_schedule_roomdata,model_livingspaces_program_schedule_roomdata,group_livingspaces_admin,1,1,1,1
access_livingspaces_practice,livingspaces_practice,model_livingspaces_practice,group_livingspaces_admin,1,1,1,1
access_livingspaces_paymentgateway,livingspaces_paymentgateway,model_livingspaces_paymentgateway,group_livingspaces_admin,1,1,1,1
access_livingspaces_starmark_matches,livingspaces_starmark_matches,model_livingspaces_starmark_matches,group_livingspaces_admin,1,1,1,1
access_livingspaces_registration_approval,livingspaces_registration_approval,model_livingspaces_registration_approval,group_livingspaces_admin,1,1,1,1
access_livingspaces_program_schedule,livingspaces_program_schedule,model_livingspaces_program_schedule,group_livingspaces_admin,1,1,1,1
access_livingspaces_entity,livingspaces_entity,model_livingspaces_entity,group_livingspaces_admin,1,1,1,1
access_livingspaces_language1,livingspaces_language1,model_livingspaces_language1,group_livingspaces_admin,1,1,1,1
access_livingspaces_session_timings,livingspaces_session_timings,model_livingspaces_session_timings,group_livingspaces_admin,1,1,1,1
access_living_spaces_history,living_spaces_history,model_living_spaces_history,group_livingspaces_admin,1,1,1,1
access_livingspaces_paymenttransaction,livingspaces_paymenttransaction,model_livingspaces_paymenttransaction,group_livingspaces_admin,1,1,1,1
access_livingspaces_terms_and_conditions,livingspaces_terms_and_conditions,model_livingspaces_terms_and_conditions,group_livingspaces_admin,1,1,1,1
access_kshetragna_registration,kshetragna_registration,model_kshetragna_registration,group_livingspaces_admin,1,1,1,1
access_kshetragna_registration,kshetragna_registration,model_kshetragna_registration,group_livingspaces_backofficeuser,1,1,1,1
access_master_livingspaces_category,master_livingspaces_category,model_master_livingspaces_category,group_livingspaces_admin,1,1,1,1
access_living_spaces_lead_status,master_living_spaces_lead_status,model_living_spaces_lead_status,,1,1,1,1
access_kshetragna_prescreenedregistrants,kshetragna_prescreenedregistrants,model_kshetragna_prescreenedregistrants,group_livingspaces_admin,1,1,1,1
access_kshetragna_participant_paymenttransaction,kshetragna_participant_paymenttransaction,model_kshetragna_participant_paymenttransaction,group_livingspaces_admin,1,1,1,1
access_kshetragna_configuration,kshetragna_configuration,model_kshetragna_configuration,group_livingspaces_admin,1,1,1,1
access_kshetragna_configuration_fin,kshetragna_configuration_finace,model_kshetragna_configuration,group_livingspaces_financial_admin,1,1,1,1
access_livingspaces_offline_payment,access_livingspaces_offline_payment,model_livingspaces_offline_payment,group_livingspaces_admin,1,1,1,1
access_livingspaces_bank_user_payment,access_livingspaces_bank_user_payment,model_livingspaces_bank_user_payment,group_livingspaces_admin,1,1,1,1
access_livingspaces_finance_comments,access_livingspaces_finance_comments,model_livingspaces_finance_comments,,1,1,1,1
